{
    "gulp": {
        "javascript": [
            "JavaScript/*"
        ],
        "templates": [
            "Templates/*"
        ]
    },
    "overrides": {
        "suitecommerce/Home@2.0.2/JavaScript/Home.View.js" : "JavaScript/Home.View.js",
        "suitecommerce/Home@2.0.2/Templates/home_cms.tpl" : "Templates/home_cms.tpl"
    }
}
